{
  "name": "Challenge",
  "plural": "challenges",
  "base": "PersistedModel",
  "strict": false,
  "idInjection": true,
  "options": {
    "validateUpsert": true
  },
  "hidden": [],
  "properties": {
    "meters": {
      "type": "number",
      "required": true
    },
	"challenger" : {
		"type" : "Person",
		"required" : true
	},
	"challengerMetersRan" : {
		"type" : "number"
	},
	"challenged" : {
		"type" : "Person",
		"required" : true
	},
	"challengedMetersRan" : {
		"type" : "number"
	},
	"status" : {
		"type" : "string"
	}
  },
  "validations": [],
  "relations": {
    "challenger": {
      "type": "hasOne",
      "model": "Person"
    },
    "challenged": {
      "type": "hasOne",
      "model": "Person"
    }
  },
  "acls": [
    {
      "accessType": "*",
      "principalType": "ROLE",
      "principalId": "$everyone",
      "permission": "ALLOW"
    },
    {
      "accessType": "READ",
      "principalType": "ROLE",
      "principalId": "$everyone",
      "permission": "ALLOW"
    },
    {
      "accessType": "EXECUTE",
      "principalType": "ROLE",
      "principalId": "$owner",
      "permission": "ALLOW"
    }
  ],
  "methods": {}
}
